F1 Project
…
performance <- lol %>% group_by(driverRef) %>% summarize(mean(place))
performance %>% arrange(performance$`mean(place)`)

## # A tibble: 34 x 2
##    driverRef      `mean(place)`
##    <fct>                  <dbl>
##  1 hamilton                2.42
##  2 bottas                  4.48
##  3 vettel                  6.27
##  4 max_verstappen          6.84
##  5 albon                   8.87
##  6 raikkonen               9.22
##  7 leclerc                 9.24
##  8 ricciardo               9.30
##  9 perez                   9.42
## 10 norris                  9.97
## # … with 24 more rows
…
stats %>% summarize_at(c("fastestLapSpeed", "laps", "points", 
    "grid", "place"), quantile, na.rm = T)

##   fastestLapSpeed laps points grid place
## 1            26.0  0.0      0    0     1
## 2          2309.0 52.0      0    5     5
## 3          3803.0 56.0      1   10    10
## 4          5361.5 66.5     10   15    15
## 5          6198.0 87.0     26   20    20

stats %>% group_by(driverRef) %>% summarize_at(c("fastestLapSpeed", 
    "laps", "points", "grid", "place"), mean, na.rm = T) %>% 
    arrange(place)

## # A tibble: 34 x 6
##    driverRef      fastestLapSpeed  laps points  grid place
##    <fct>                    <dbl> <dbl>  <dbl> <dbl> <dbl>
##  1 hamilton                 4058.  59.8  19.6   2.67  2.42
##  2 bottas                   4059.  58.2  13.9   3.43  4.48
##  3 max_verstappen           3943.  54.4  12.6   5.32  5.62
##  4 vettel                   3930.  57.5  11.8   5.27  5.94
##  5 leclerc                  3783.  54.2   7.16  8.25  8.70
##  6 raikkonen                3883.  57.4   6.62  8.49  8.79
##  7 albon                    4051.  58.9   5.18  8.39  8.87
##  8 ricciardo                3807.  52.4   7.05  8.49  9.03
##  9 perez                    3663.  58.1   4.46 10.2   9.28
## 10 ocon                     3651.  56.1   3.74 10.0   9.42
## # … with 24 more rows
…
lol %>% summarize(cor(grid, place, use = "pair"))

##   cor(grid, place, use = "pair")
## 1                       0.560938

lol$fastestLapSpeed <- as.numeric(lol$fastestLapSpeed)
matrix <- lol %>% select(fastestLapSpeed, laps, points, grid, 
    place) %>% cor(use = "pair")
tidymatrix <- matrix %>% as.data.frame %>% rownames_to_column("var1") %>% 
    pivot_longer(-1, names_to = "var2", values_to = "correlation")
tidymatrix

## # A tibble: 25 x 3
##    var1            var2            correlation
##    <chr>           <chr>                 <dbl>
##  1 fastestLapSpeed fastestLapSpeed      1     
##  2 fastestLapSpeed laps                 0.142 
##  3 fastestLapSpeed points               0.166 
##  4 fastestLapSpeed grid                -0.0962
##  5 fastestLapSpeed place               -0.250 
##  6 laps            fastestLapSpeed      0.142 
##  7 laps            laps                 1     
##  8 laps            points               0.260 
##  9 laps            grid                -0.0638
## 10 laps            place               -0.506 
## # … with 15 more rows
…
